-------------------------------------------------------------------------------
Test set: com.redhat.developers.cars.CarApiApplicationTests
-------------------------------------------------------------------------------
Tests run: 1, Failures: 0, Errors: 0, Skipped: 0, Time elapsed: 3.196 s - in com.redhat.developers.cars.CarApiApplicationTests
